{
  "project_info": {
    "project_number": "86602820666",
    "project_id": "marathavyapari",
    "storage_bucket": "marathavyapari.appspot.com"
  },
  "client": [
    {
      "client_info": {
        "mobilesdk_app_id": "1:86602820666:android:2af73a30c0c1aaf9f3d903",
        "android_client_info": {
          "package_name": "app.marathavyapari.com"
        }
      },
      "oauth_client": [
        {
          "client_id": "86602820666-aeafmururrr8krdeqa5fvfjasjm25me6.apps.googleusercontent.com",
          "client_type": 3
        }
      ],
      "api_key": [
        {
          "current_key": "AIzaSyDmx37gXYyB82KTSSdMHei8AaocNUAbOtI"
        }
      ],
      "services": {
        "appinvite_service": {
          "other_platform_oauth_client": [
            {
              "client_id": "86602820666-aeafmururrr8krdeqa5fvfjasjm25me6.apps.googleusercontent.com",
              "client_type": 3
            }
          ]
        }
      }
    }
  ],
  "configuration_version": "1"
}